Graphs SF Bay Summer 2022
…
`summarise()` has grouped output by 'lever_position'. You can override using
the `.groups` argument.

# A tibble: 30 × 6
# Groups:   lever_position [6]
   lever_position  avLS   avY    qsLS   qsTIV      n
            <dbl> <dbl> <dbl>   <dbl>   <dbl>  <int>
 1          0.125 -12.2 -12.2 -944.   -944.   730222
 2          0.125 -12.2 -12.2  -17.8   -17.8  730222
 3          0.125 -12.2 -12.2   -9.55   -9.55 730222
 4          0.125 -12.2 -12.2   -3.82   -3.82 730222
 5          0.125 -12.2 -12.2   19.0    19.0  730222
 6          0.25  -12.4 -12.4 -655.   -655.   733023
 7          0.25  -12.4 -12.4  -17.9   -17.9  733023
 8          0.25  -12.4 -12.4   -9.59   -9.59 733023
 9          0.25  -12.4 -12.4   -3.82   -3.82 733023
10          0.25  -12.4 -12.4   19.0    19.0  733023
# … with 20 more rows
# ℹ Use `print(n = ...)` to see more rows
…
